(Exported by FreeCAD)
(Post Processor: grbl_post)
(Output Time:2021-04-01 18:40:46.564248)
(Begin preamble)
G17 G90
G21
(Begin operation: Fixture)
(Path: Fixture)
G54
(Finish operation: Fixture)
(Begin operation: TC: endmill-1mm-7mm002)
(Path: TC: endmill-1mm-7mm002)
(TC: endmill-1mm-7mm002)
(Begin toolchange)
( M6 T20.0 )
M3 S8000.0
(Finish operation: TC: endmill-1mm-7mm002)
(Begin operation: RampEntryDressup)
(Path: RampEntryDressup)
G0 X0.000 Y0.000 Z3.500
G0 X1.413 Y1.413 Z3.500
G0 X1.413 Y1.413 Z1.300
G1 X1.630 Y1.156 Z1.108 F105.000
G1 X1.800 Y0.868 Z0.912 F105.000
G1 X1.919 Y0.556 Z0.717 F105.000
G1 X1.985 Y0.226 Z0.525 F105.000
G1 X1.919 Y0.556 Z0.333 F105.000
G1 X1.800 Y0.868 Z0.138 F105.000
G1 X1.630 Y1.156 Z-0.058 F105.000
G1 X1.413 Y1.413 Z-0.250 F105.000
G2 X0.721 Y-1.864 Z-0.250 I-1.413 J-1.413 K0.000 F105.000
G2 X-0.721 Y1.864 Z-0.250 I-0.721 J1.864 K0.000 F105.000
G2 X1.413 Y1.413 Z-0.250 I0.721 J-1.864 K0.000 F105.000
G1 X1.557 Y1.252 Z-0.375 F105.000
G1 X1.413 Y1.413 Z-0.500 F105.000
G2 X0.721 Y-1.864 Z-0.500 I-1.413 J-1.413 K0.000 F105.000
G2 X-0.721 Y1.864 Z-0.500 I-0.721 J1.864 K0.000 F105.000
G2 X1.413 Y1.413 Z-0.500 I0.721 J-1.864 K0.000 F105.000
G1 X1.557 Y1.252 Z-0.625 F105.000
G1 X1.413 Y1.413 Z-0.750 F105.000
G2 X0.721 Y-1.864 Z-0.750 I-1.413 J-1.413 K0.000 F105.000
G2 X-0.721 Y1.864 Z-0.750 I-0.721 J1.864 K0.000 F105.000
G2 X1.413 Y1.413 Z-0.750 I0.721 J-1.864 K0.000 F105.000
G1 X1.557 Y1.252 Z-0.875 F105.000
G1 X1.413 Y1.413 Z-1.000 F105.000
G2 X0.721 Y-1.864 Z-1.000 I-1.413 J-1.413 K0.000 F105.000
G2 X-0.721 Y1.864 Z-1.000 I-0.721 J1.864 K0.000 F105.000
G2 X1.413 Y1.413 Z-1.000 I0.721 J-1.864 K0.000 F105.000
G1 X1.557 Y1.252 Z-1.125 F105.000
G1 X1.413 Y1.413 Z-1.250 F105.000
G2 X0.721 Y-1.864 Z-1.250 I-1.413 J-1.413 K0.000 F105.000
G2 X-0.721 Y1.864 Z-1.250 I-0.721 J1.864 K0.000 F105.000
G2 X1.413 Y1.413 Z-1.250 I0.721 J-1.864 K0.000 F105.000
G1 X1.557 Y1.252 Z-1.375 F105.000
G1 X1.413 Y1.413 Z-1.500 F105.000
G2 X0.721 Y-1.864 Z-1.500 I-1.413 J-1.413 K0.000 F105.000
G2 X-0.721 Y1.864 Z-1.500 I-0.721 J1.864 K0.000 F105.000
G2 X1.413 Y1.413 Z-1.500 I0.721 J-1.864 K0.000 F105.000
G1 X1.557 Y1.252 Z-1.625 F105.000
G1 X1.413 Y1.413 Z-1.750 F105.000
G2 X0.721 Y-1.864 Z-1.750 I-1.413 J-1.413 K0.000 F105.000
G2 X-0.721 Y1.864 Z-1.750 I-0.721 J1.864 K0.000 F105.000
G2 X1.413 Y1.413 Z-1.750 I0.721 J-1.864 K0.000 F105.000
G1 X1.557 Y1.252 Z-1.875 F105.000
G1 X1.413 Y1.413 Z-2.000 F105.000
G2 X0.721 Y-1.864 Z-2.000 I-1.413 J-1.413 K0.000 F105.000
G2 X-0.721 Y1.864 Z-2.000 I-0.721 J1.864 K0.000 F105.000
G2 X1.413 Y1.413 Z-2.000 I0.721 J-1.864 K0.000 F105.000
G1 X1.557 Y1.252 Z-2.125 F105.000
G1 X1.413 Y1.413 Z-2.250 F105.000
G2 X0.721 Y-1.864 Z-2.250 I-1.413 J-1.413 K0.000 F105.000
G2 X-0.721 Y1.864 Z-2.250 I-0.721 J1.864 K0.000 F105.000
G2 X1.413 Y1.413 Z-2.250 I0.721 J-1.864 K0.000 F105.000
G1 X1.557 Y1.252 Z-2.375 F105.000
G1 X1.413 Y1.413 Z-2.500 F105.000
G2 X0.721 Y-1.864 Z-2.500 I-1.413 J-1.413 K0.000 F105.000
G2 X-0.721 Y1.864 Z-2.500 I-0.721 J1.864 K0.000 F105.000
G2 X1.413 Y1.413 Z-2.500 I0.721 J-1.864 K0.000 F105.000
G1 X1.557 Y1.252 Z-2.625 F105.000
G1 X1.413 Y1.413 Z-2.750 F105.000
G2 X0.721 Y-1.864 Z-2.750 I-1.413 J-1.413 K0.000 F105.000
G2 X-0.721 Y1.864 Z-2.750 I-0.721 J1.864 K0.000 F105.000
G2 X1.413 Y1.413 Z-2.750 I0.721 J-1.864 K0.000 F105.000
G1 X1.557 Y1.252 Z-2.875 F105.000
G1 X1.413 Y1.413 Z-3.000 F105.000
G2 X0.721 Y-1.864 Z-3.000 I-1.413 J-1.413 K0.000 F105.000
G2 X-0.721 Y1.864 Z-3.000 I-0.721 J1.864 K0.000 F105.000
G2 X1.413 Y1.413 Z-3.000 I0.721 J-1.864 K0.000 F105.000
G1 X1.557 Y1.252 Z-3.125 F105.000
G1 X1.413 Y1.413 Z-3.250 F105.000
G2 X0.721 Y-1.864 Z-3.250 I-1.413 J-1.413 K0.000 F105.000
G2 X-0.721 Y1.864 Z-3.250 I-0.721 J1.864 K0.000 F105.000
G2 X1.413 Y1.413 Z-3.250 I0.721 J-1.864 K0.000 F105.000
G1 X1.557 Y1.252 Z-3.375 F105.000
G1 X1.413 Y1.413 Z-3.500 F105.000
G2 X0.721 Y-1.864 Z-3.500 I-1.413 J-1.413 K0.000 F105.000
G2 X-0.721 Y1.864 Z-3.500 I-0.721 J1.864 K0.000 F105.000
G2 X1.413 Y1.413 Z-3.500 I0.721 J-1.864 K0.000 F105.000
G1 X1.557 Y1.252 Z-3.625 F105.000
G1 X1.413 Y1.413 Z-3.750 F105.000
G2 X0.721 Y-1.864 Z-3.750 I-1.413 J-1.413 K0.000 F105.000
G2 X-0.721 Y1.864 Z-3.750 I-0.721 J1.864 K0.000 F105.000
G2 X1.413 Y1.413 Z-3.750 I0.721 J-1.864 K0.000 F105.000
G1 X1.557 Y1.252 Z-3.875 F105.000
G1 X1.413 Y1.413 Z-4.000 F105.000
G2 X0.721 Y-1.864 Z-4.000 I-1.413 J-1.413 K0.000 F105.000
G2 X-0.721 Y1.864 Z-4.000 I-0.721 J1.864 K0.000 F105.000
G2 X1.413 Y1.413 Z-4.000 I0.721 J-1.864 K0.000 F105.000
G0 X1.413 Y1.413 Z3.500
G0 X52.003 Y0.054 Z3.500
G0 X52.003 Y0.054 Z1.300
G1 X52.040 Y0.388 Z1.108 F105.000
G1 X52.132 Y0.709 Z0.913 F105.000
G1 X52.276 Y1.010 Z0.717 F105.000
G1 X52.470 Y1.285 Z0.525 F105.000
G1 X52.276 Y1.010 Z0.333 F105.000
G1 X52.132 Y0.709 Z0.138 F105.000
G1 X52.040 Y0.388 Z-0.058 F105.000
G1 X52.003 Y0.054 Z-0.250 F105.000
G2 X53.279 Y1.864 Z-0.250 I1.997 J-0.054 K0.000 F105.000
G2 X54.721 Y-1.864 Z-0.250 I0.721 J-1.864 K0.000 F105.000
G2 X52.003 Y0.054 Z-0.250 I-0.721 J1.864 K0.000 F105.000
G1 X52.020 Y0.269 Z-0.375 F105.000
G1 X52.003 Y0.054 Z-0.500 F105.000
G2 X53.279 Y1.864 Z-0.500 I1.997 J-0.054 K0.000 F105.000
G2 X54.721 Y-1.864 Z-0.500 I0.721 J-1.864 K0.000 F105.000
G2 X52.003 Y0.054 Z-0.500 I-0.721 J1.864 K0.000 F105.000
G1 X52.020 Y0.269 Z-0.625 F105.000
G1 X52.003 Y0.054 Z-0.750 F105.000
G2 X53.279 Y1.864 Z-0.750 I1.997 J-0.054 K0.000 F105.000
G2 X54.721 Y-1.864 Z-0.750 I0.721 J-1.864 K0.000 F105.000
G2 X52.003 Y0.054 Z-0.750 I-0.721 J1.864 K0.000 F105.000
G1 X52.020 Y0.269 Z-0.875 F105.000
G1 X52.003 Y0.054 Z-1.000 F105.000
G2 X53.279 Y1.864 Z-1.000 I1.997 J-0.054 K0.000 F105.000
G2 X54.721 Y-1.864 Z-1.000 I0.721 J-1.864 K0.000 F105.000
G2 X52.003 Y0.054 Z-1.000 I-0.721 J1.864 K0.000 F105.000
G1 X52.020 Y0.269 Z-1.125 F105.000
G1 X52.003 Y0.054 Z-1.250 F105.000
G2 X53.279 Y1.864 Z-1.250 I1.997 J-0.054 K0.000 F105.000
G2 X54.721 Y-1.864 Z-1.250 I0.721 J-1.864 K0.000 F105.000
G2 X52.003 Y0.054 Z-1.250 I-0.721 J1.864 K0.000 F105.000
G1 X52.020 Y0.269 Z-1.375 F105.000
G1 X52.003 Y0.054 Z-1.500 F105.000
G2 X53.279 Y1.864 Z-1.500 I1.997 J-0.054 K0.000 F105.000
G2 X54.721 Y-1.864 Z-1.500 I0.721 J-1.864 K0.000 F105.000
G2 X52.003 Y0.054 Z-1.500 I-0.721 J1.864 K0.000 F105.000
G1 X52.020 Y0.269 Z-1.625 F105.000
G1 X52.003 Y0.054 Z-1.750 F105.000
G2 X53.279 Y1.864 Z-1.750 I1.997 J-0.054 K0.000 F105.000
G2 X54.721 Y-1.864 Z-1.750 I0.721 J-1.864 K0.000 F105.000
G2 X52.003 Y0.054 Z-1.750 I-0.721 J1.864 K0.000 F105.000
G1 X52.020 Y0.269 Z-1.875 F105.000
G1 X52.003 Y0.054 Z-2.000 F105.000
G2 X53.279 Y1.864 Z-2.000 I1.997 J-0.054 K0.000 F105.000
G2 X54.721 Y-1.864 Z-2.000 I0.721 J-1.864 K0.000 F105.000
G2 X52.003 Y0.054 Z-2.000 I-0.721 J1.864 K0.000 F105.000
G1 X52.020 Y0.269 Z-2.125 F105.000
G1 X52.003 Y0.054 Z-2.250 F105.000
G2 X53.279 Y1.864 Z-2.250 I1.997 J-0.054 K0.000 F105.000
G2 X54.721 Y-1.864 Z-2.250 I0.721 J-1.864 K0.000 F105.000
G2 X52.003 Y0.054 Z-2.250 I-0.721 J1.864 K0.000 F105.000
G1 X52.020 Y0.269 Z-2.375 F105.000
G1 X52.003 Y0.054 Z-2.500 F105.000
G2 X53.279 Y1.864 Z-2.500 I1.997 J-0.054 K0.000 F105.000
G2 X54.721 Y-1.864 Z-2.500 I0.721 J-1.864 K0.000 F105.000
G2 X52.003 Y0.054 Z-2.500 I-0.721 J1.864 K0.000 F105.000
G1 X52.020 Y0.269 Z-2.625 F105.000
G1 X52.003 Y0.054 Z-2.750 F105.000
G2 X53.279 Y1.864 Z-2.750 I1.997 J-0.054 K0.000 F105.000
G2 X54.721 Y-1.864 Z-2.750 I0.721 J-1.864 K0.000 F105.000
G2 X52.003 Y0.054 Z-2.750 I-0.721 J1.864 K0.000 F105.000
G1 X52.020 Y0.269 Z-2.875 F105.000
G1 X52.003 Y0.054 Z-3.000 F105.000
G2 X53.279 Y1.864 Z-3.000 I1.997 J-0.054 K0.000 F105.000
G2 X54.721 Y-1.864 Z-3.000 I0.721 J-1.864 K0.000 F105.000
G2 X52.003 Y0.054 Z-3.000 I-0.721 J1.864 K0.000 F105.000
G1 X52.020 Y0.269 Z-3.125 F105.000
G1 X52.003 Y0.054 Z-3.250 F105.000
G2 X53.279 Y1.864 Z-3.250 I1.997 J-0.054 K0.000 F105.000
G2 X54.721 Y-1.864 Z-3.250 I0.721 J-1.864 K0.000 F105.000
G2 X52.003 Y0.054 Z-3.250 I-0.721 J1.864 K0.000 F105.000
G1 X52.020 Y0.269 Z-3.375 F105.000
G1 X52.003 Y0.054 Z-3.500 F105.000
G2 X53.279 Y1.864 Z-3.500 I1.997 J-0.054 K0.000 F105.000
G2 X54.721 Y-1.864 Z-3.500 I0.721 J-1.864 K0.000 F105.000
G2 X52.003 Y0.054 Z-3.500 I-0.721 J1.864 K0.000 F105.000
G1 X52.020 Y0.269 Z-3.625 F105.000
G1 X52.003 Y0.054 Z-3.750 F105.000
G2 X53.279 Y1.864 Z-3.750 I1.997 J-0.054 K0.000 F105.000
G2 X54.721 Y-1.864 Z-3.750 I0.721 J-1.864 K0.000 F105.000
G2 X52.003 Y0.054 Z-3.750 I-0.721 J1.864 K0.000 F105.000
G1 X52.020 Y0.269 Z-3.875 F105.000
G1 X52.003 Y0.054 Z-4.000 F105.000
G2 X53.279 Y1.864 Z-4.000 I1.997 J-0.054 K0.000 F105.000
G2 X54.721 Y-1.864 Z-4.000 I0.721 J-1.864 K0.000 F105.000
G2 X52.003 Y0.054 Z-4.000 I-0.721 J1.864 K0.000 F105.000
G0 X52.003 Y0.054 Z3.500
(Finish operation: RampEntryDressup)
(Begin postamble)
M5
G17 G90
M2
