(Exported by FreeCAD)
(Post Processor: grbl_post)
(Output Time:2021-04-01 19:51:59.296861)
(Begin preamble)
G17 G90
G21
(Begin operation: Fixture)
(Path: Fixture)
G54
(Finish operation: Fixture)
(Begin operation: drill-1mm-10mm001)
(Path: drill-1mm-10mm001)
(drill-1mm-10mm001)
(Begin toolchange)
( M6 T1.0 )
M3 S8000.0
(Finish operation: drill-1mm-10mm001)
(Begin operation: Drilling001)
(Path: Drilling001)
(Drilling001)
(Begin Drilling)
G0 Z3.500
G90
G99
G83 X0.000 Y-7.000 Z-1.200 F60.000 Q2.250 R1.000
G80
G0 Z1.500
G83 X6.299 Y-12.272 Z-1.200 F60.000 Q2.250 R1.000
G80
G0 Z1.500
G83 X6.299 Y-14.772 Z-1.200 F60.000 Q2.250 R1.000
G80
G0 Z1.500
G83 X6.553 Y-18.836 Z-1.200 F60.000 Q2.250 R1.000
G80
G0 Z1.500
G83 X6.553 Y-21.376 Z-1.200 F60.000 Q2.250 R1.000
G80
G0 Z1.500
G83 X2.926 Y-23.662 Z-1.200 F60.000 Q2.250 R1.000
G80
G0 Z1.500
G83 X2.926 Y-26.202 Z-1.200 F60.000 Q2.250 R1.000
G80
G0 Z1.500
G83 X2.926 Y-28.742 Z-1.200 F60.000 Q2.250 R1.000
G80
G0 Z1.500
G83 X7.207 Y-26.456 Z-1.200 F60.000 Q2.250 R1.000
G80
G0 Z1.500
G83 X9.747 Y-26.456 Z-1.200 F60.000 Q2.250 R1.000
G80
G0 Z1.500
G83 X13.665 Y-25.908 Z-1.200 F60.000 Q2.250 R1.000
G80
G0 Z1.500
G83 X17.007 Y-26.710 Z-1.200 F60.000 Q2.250 R1.000
G80
G0 Z1.500
G83 X22.007 Y-26.710 Z-1.200 F60.000 Q2.250 R1.000
G80
G0 Z1.500
G83 X20.777 Y-31.790 Z-1.200 F60.000 Q2.250 R1.000
G80
G0 Z1.500
G83 X20.777 Y-34.290 Z-1.200 F60.000 Q2.250 R1.000
G80
G0 Z1.500
G83 X24.079 Y-34.350 Z-1.200 F60.000 Q2.250 R1.000
G80
G0 Z1.500
G83 X24.079 Y-36.850 Z-1.200 F60.000 Q2.250 R1.000
G80
G0 Z1.500
G83 X24.079 Y-39.938 Z-1.200 F60.000 Q2.250 R1.000
G80
G0 Z1.500
G83 X24.079 Y-42.438 Z-1.200 F60.000 Q2.250 R1.000
G80
G0 Z1.500
G83 X19.761 Y-42.458 Z-1.200 F60.000 Q2.250 R1.000
G80
G0 Z1.500
G83 X19.761 Y-44.998 Z-1.200 F60.000 Q2.250 R1.000
G80
G0 Z1.500
G83 X15.697 Y-45.526 Z-1.200 F60.000 Q2.250 R1.000
G80
G0 Z1.500
G83 X15.697 Y-48.026 Z-1.200 F60.000 Q2.250 R1.000
G80
G0 Z1.500
G83 X9.766 Y-48.211 Z-1.200 F60.000 Q2.250 R1.000
G80
G0 Z1.500
G83 X7.970 Y-46.415 Z-1.200 F60.000 Q2.250 R1.000
G80
G0 Z1.500
G83 X2.743 Y-45.606 Z-1.200 F60.000 Q2.250 R1.000
G80
G0 Z1.500
G83 X2.743 Y-43.066 Z-1.200 F60.000 Q2.250 R1.000
G80
G0 Z1.500
G83 X2.489 Y-38.648 Z-1.200 F60.000 Q2.250 R1.000
G80
G0 Z1.500
G83 X2.489 Y-36.148 Z-1.200 F60.000 Q2.250 R1.000
G80
G0 Z1.500
G83 X6.198 Y-37.582 Z-1.200 F60.000 Q2.250 R1.000
G80
G0 Z1.500
G83 X7.625 Y-40.624 Z-1.200 F60.000 Q2.250 R1.000
G80
G0 Z1.500
G83 X7.625 Y-33.624 Z-1.200 F60.000 Q2.250 R1.000
G80
G0 Z1.500
G83 X14.625 Y-33.624 Z-1.200 F60.000 Q2.250 R1.000
G80
G0 Z1.500
G83 X16.358 Y-37.582 Z-1.200 F60.000 Q2.250 R1.000
G80
G0 Z1.500
G83 X14.625 Y-40.624 Z-1.200 F60.000 Q2.250 R1.000
G80
G0 Z1.500
G83 X20.309 Y-50.586 Z-1.200 F60.000 Q2.250 R1.000
G80
G0 Z1.500
G83 X25.309 Y-50.586 Z-1.200 F60.000 Q2.250 R1.000
G80
G0 Z1.500
G83 X22.555 Y-57.952 Z-1.200 F60.000 Q2.250 R1.000
G80
G0 Z1.500
G83 X18.686 Y-56.741 Z-1.200 F60.000 Q2.250 R1.000
G80
G0 Z1.500
G83 X16.143 Y-62.571 Z-1.200 F60.000 Q2.250 R1.000
G80
G0 Z1.500
G83 X12.395 Y-61.661 Z-1.200 F60.000 Q2.250 R1.000
G80
G0 Z1.500
G83 X12.141 Y-58.674 Z-1.200 F60.000 Q2.250 R1.000
G80
G0 Z1.500
G83 X8.585 Y-56.134 Z-1.200 F60.000 Q2.250 R1.000
G80
G0 Z1.500
G83 X12.141 Y-53.674 Z-1.200 F60.000 Q2.250 R1.000
G80
G0 Z1.500
G83 X8.585 Y-51.134 Z-1.200 F60.000 Q2.250 R1.000
G80
G0 Z1.500
G83 X2.926 Y-51.348 Z-1.200 F60.000 Q2.250 R1.000
G80
G0 Z1.500
G83 X2.926 Y-53.888 Z-1.200 F60.000 Q2.250 R1.000
G80
G0 Z1.500
G83 X2.926 Y-56.428 Z-1.200 F60.000 Q2.250 R1.000
G80
G0 Z1.500
G83 X2.743 Y-62.162 Z-1.200 F60.000 Q2.250 R1.000
G80
G0 Z1.500
G83 X2.743 Y-64.702 Z-1.200 F60.000 Q2.250 R1.000
G80
G0 Z1.500
G83 X6.700 Y-63.433 Z-1.200 F60.000 Q2.250 R1.000
G80
G0 Z1.500
G83 X8.496 Y-65.229 Z-1.200 F60.000 Q2.250 R1.000
G80
G0 Z1.500
G83 X7.772 Y-70.083 Z-1.200 F60.000 Q2.250 R1.000
G80
G0 Z1.500
G83 X2.926 Y-69.636 Z-1.200 F60.000 Q2.250 R1.000
G80
G0 Z1.500
G83 X2.926 Y-72.176 Z-1.200 F60.000 Q2.250 R1.000
G80
G0 Z1.500
G83 X2.926 Y-74.716 Z-1.200 F60.000 Q2.250 R1.000
G80
G0 Z1.500
G83 X7.772 Y-75.083 Z-1.200 F60.000 Q2.250 R1.000
G80
G0 Z1.500
G83 X11.125 Y-72.978 Z-1.200 F60.000 Q2.250 R1.000
G80
G0 Z1.500
G83 X12.395 Y-69.161 Z-1.200 F60.000 Q2.250 R1.000
G80
G0 Z1.500
G83 X18.686 Y-68.401 Z-1.200 F60.000 Q2.250 R1.000
G80
G0 Z1.500
G83 X24.079 Y-66.842 Z-1.200 F60.000 Q2.250 R1.000
G80
G0 Z1.500
G83 X31.445 Y-66.842 Z-1.200 F60.000 Q2.250 R1.000
G80
G0 Z1.500
G83 X37.846 Y-68.401 Z-1.200 F60.000 Q2.250 R1.000
G80
G0 Z1.500
G83 X46.685 Y-67.345 Z-1.200 F60.000 Q2.250 R1.000
G80
G0 Z1.500
G83 X46.685 Y-69.885 Z-1.200 F60.000 Q2.250 R1.000
G80
G0 Z1.500
G83 X46.685 Y-56.931 Z-1.200 F60.000 Q2.250 R1.000
G80
G0 Z1.500
G83 X46.685 Y-54.391 Z-1.200 F60.000 Q2.250 R1.000
G80
G0 Z1.500
G83 X46.685 Y-49.062 Z-1.200 F60.000 Q2.250 R1.000
G80
G0 Z1.500
G83 X44.185 Y-49.062 Z-1.200 F60.000 Q2.250 R1.000
G80
G0 Z1.500
G83 X36.525 Y-50.147 Z-1.200 F60.000 Q2.250 R1.000
G80
G0 Z1.500
G83 X36.525 Y-47.647 Z-1.200 F60.000 Q2.250 R1.000
G80
G0 Z1.500
G83 X35.509 Y-39.224 Z-1.200 F60.000 Q2.250 R1.000
G80
G0 Z1.500
G83 X33.839 Y-37.564 Z-1.200 F60.000 Q2.250 R1.000
G80
G0 Z1.500
G83 X37.179 Y-37.564 Z-1.200 F60.000 Q2.250 R1.000
G80
G0 Z1.500
G83 X42.621 Y-39.664 Z-1.200 F60.000 Q2.250 R1.000
G80
G0 Z1.500
G83 X48.621 Y-33.664 Z-1.200 F60.000 Q2.250 R1.000
G80
G0 Z1.500
G83 X36.925 Y-27.150 Z-1.200 F60.000 Q2.250 R1.000
G80
G0 Z1.500
G83 X35.255 Y-28.810 Z-1.200 F60.000 Q2.250 R1.000
G80
G0 Z1.500
G83 X33.585 Y-27.150 Z-1.200 F60.000 Q2.250 R1.000
G80
G0 Z1.500
G83 X28.397 Y-29.250 Z-1.200 F60.000 Q2.250 R1.000
G80
G0 Z1.500
G83 X26.551 Y-23.300 Z-1.200 F60.000 Q2.250 R1.000
G80
G0 Z1.500
G83 X28.211 Y-21.630 Z-1.200 F60.000 Q2.250 R1.000
G80
G0 Z1.500
G83 X26.551 Y-19.960 Z-1.200 F60.000 Q2.250 R1.000
G80
G0 Z1.500
G83 X24.079 Y-14.478 Z-1.200 F60.000 Q2.250 R1.000
G80
G0 Z1.500
G83 X24.079 Y-9.478 Z-1.200 F60.000 Q2.250 R1.000
G80
G0 Z1.500
G83 X28.279 Y-11.978 Z-1.200 F60.000 Q2.250 R1.000
G80
G0 Z1.500
G83 X30.311 Y-13.756 Z-1.200 F60.000 Q2.250 R1.000
G80
G0 Z1.500
G83 X30.565 Y-10.200 Z-1.200 F60.000 Q2.250 R1.000
G80
G0 Z1.500
G83 X35.763 Y-9.224 Z-1.200 F60.000 Q2.250 R1.000
G80
G0 Z1.500
G83 X39.827 Y-9.946 Z-1.200 F60.000 Q2.250 R1.000
G80
G0 Z1.500
G83 X35.763 Y-14.224 Z-1.200 F60.000 Q2.250 R1.000
G80
G0 Z1.500
G83 X39.827 Y-17.566 Z-1.200 F60.000 Q2.250 R1.000
G80
G0 Z1.500
G83 X47.193 Y-17.566 Z-1.200 F60.000 Q2.250 R1.000
G80
G0 Z1.500
G83 X47.193 Y-15.026 Z-1.200 F60.000 Q2.250 R1.000
G80
G0 Z1.500
G83 X19.467 Y-21.122 Z-1.200 F60.000 Q2.250 R1.000
G80
G0 Z1.500
G83 X16.967 Y-21.122 Z-1.200 F60.000 Q2.250 R1.000
G80
G0 Z1.500
G83 X13.665 Y-20.908 Z-1.200 F60.000 Q2.250 R1.000
G80
G0 Z1.500
G83 X15.335 Y-17.566 Z-1.200 F60.000 Q2.250 R1.000
G80
G0 Z1.500
G83 X17.875 Y-17.566 Z-1.200 F60.000 Q2.250 R1.000
G80
G0 Z1.500
G83 X17.724 Y-12.232 Z-1.200 F60.000 Q2.250 R1.000
G80
G0 Z1.500
G83 X15.184 Y-12.232 Z-1.200 F60.000 Q2.250 R1.000
G80
G0 Z1.500
G83 X10.871 Y-11.978 Z-1.200 F60.000 Q2.250 R1.000
G80
G0 Z1.500
G83 X10.871 Y-16.978 Z-1.200 F60.000 Q2.250 R1.000
G80
G0 Z1.500
G83 X-0.000 Y-15.839 Z-1.200 F60.000 Q2.250 R1.000
G80
G0 Z1.500
G83 X28.397 Y-41.950 Z-1.200 F60.000 Q2.250 R1.000
G80
G0 Z1.500
G83 X31.953 Y-58.460 Z-1.200 F60.000 Q2.250 R1.000
G80
G0 Z1.500
G83 X37.846 Y-56.741 Z-1.200 F60.000 Q2.250 R1.000
G80
G0 Z1.500
G83 X11.125 Y-77.978 Z-1.200 F60.000 Q2.250 R1.000
G80
G0 Z1.500
G0 Z3.500
(Finish operation: Drilling001)
(Begin postamble)
M5
G17 G90
M2
